Function collection for using AquaCrop from R • AquacropOnR
…
                              Tnx = "Tnx_01",
                              ETo = "ETo_01")
Scenario_s
#> # A tibble: 1 × 8
#>   Scenario Input_Date Plant_Date IRRI    Soil    Plu    Tnx    ETo   
#>   <chr>    <date>     <date>     <chr>   <chr>   <chr>  <chr>  <chr> 
#> 1 S_01     2019-01-01 2019-04-01 IRRI_01 Soil_01 Plu_01 Tnx_01 ETo_01
IRRI_s <- tibble(ID = "IRRI_01", Timing = 20, Depth = 25, ECw = 30)
SOL_s
#> # A tibble: 1 × 9
#>   ID      Horizon Thickness   SAT    FC    WP  Ksat Penetrability Gravel
#>   <chr>     <dbl>     <dbl> <dbl> <dbl> <dbl> <dbl>         <dbl>  <dbl>
#> 1 Soil_01       1         4    41    22    10  1200           100      0
Plu_01
#> # A tibble: 365 × 2
#>      DAY   PLU
#>    <dbl> <dbl>
#>  1     1   0.4
#>  2     2   0.7
#>  3     3   0.8
#>  4     4   0.2
#>  5     5   0  
#>  6     6   0.3
#>  7     7   1.9
#>  8     8   6.5
#>  9     9   0.6
#> 10    10   5.2
#> # ℹ 355 more rows
Tnx_01
#> # A tibble: 365 × 3
#>      DAY  TMAX  TMIN
#>    <dbl> <dbl> <dbl>
#>  1     1   9.3   7.2
#>  2     2   7.4   5  
#>  3     3   6.8   2.1
#>  4     4   6.5   2.5
#>  5     5   6.5   2.9
#>  6     6   7.4   4.3
#>  7     7   9.6   4.7
#>  8     8   8.5   6.6
#>  9     9   7.2   3.9
#> 10    10   7.4   1  
#> # ℹ 355 more rows
ETo_01
#> # A tibble: 365 × 2
#>      DAY   ETo
#>    <dbl> <dbl>
#>  1     1 1.03 
#>  2     2 1.17 
#>  3     3 0.743
#>  4     4 0.887
#>  5     5 0.778
#>  6     6 0.695
#>  7     7 0.693
#>  8     8 1.51 
#>  9     9 1.37 
#> 10    10 0.602
#> # ℹ 355 more rows
…
